<?xml version="1.0" encoding="utf-8"?>
<!-- Generator: Adobe Illustrator 21.0.0, SVG Export Plug-In . SVG Version: 6.00 Build 0)  -->
<svg version="1.1" id="Capa_1" xmlns="http://www.w3.org/2000/svg" xmlns:xlink="http://www.w3.org/1999/xlink" x="0px" y="0px"
	 viewBox="0 0 24 24" style="enable-background:new 0 0 24 24;" xml:space="preserve">
<style type="text/css">
	.st0{fill:#FFFFFF;}
</style>
<g>
	<g>
		<path class="st0" d="M12.3,22.1H5.6V9.5H3.7c-0.6,0-1-0.5-1-1s0.5-1,1-1h4v12.7h4.6c0.6,0,1,0.5,1,1S12.9,22.1,12.3,22.1z"/>
	</g>
	<g>
		<path class="st0" d="M18.5,22.1h-6.7c-0.6,0-1-0.5-1-1s0.5-1,1-1h4.6V7.4h4c0.6,0,1,0.5,1,1s-0.5,1-1,1h-1.9V22.1z"/>
	</g>
</g>
<g>
	<g>
		<path class="st0" d="M20.3,6.2H3.8c-0.6,0-1-0.5-1-1s0.5-1,1-1h16.5c0.6,0,1,0.5,1,1S20.9,6.2,20.3,6.2z"/>
	</g>
	<g>
		<path class="st0" d="M9.6,6.2c-0.4,0-0.7-0.3-0.7-0.7V1.9c0-0.4,0.3-0.7,0.7-0.7h5c0.4,0,0.7,0.3,0.7,0.7v3.4
			c0,0.4-0.3,0.7-0.7,0.7s-0.7-0.3-0.7-0.7V2.6h-3.6v3C10.2,5.9,9.9,6.2,9.6,6.2z"/>
	</g>
</g>
<g>
	<g>
		<path class="st0" d="M10.3,19.2c-0.4,0-0.8-0.4-0.8-0.8V8.9c0-0.4,0.4-0.8,0.8-0.8c0.4,0,0.8,0.4,0.8,0.8v9.4
			C11.1,18.8,10.8,19.2,10.3,19.2z"/>
	</g>
	<g>
		<path class="st0" d="M13.7,19.2c-0.4,0-0.8-0.4-0.8-0.8V8.9c0-0.4,0.4-0.8,0.8-0.8c0.4,0,0.8,0.4,0.8,0.8v9.4
			C14.5,18.8,14.2,19.2,13.7,19.2z"/>
	</g>
</g>
</svg>
